[gd_scene load_steps=3 format=2]

[ext_resource path="res://Assets/VFX/Godot PulseGlow/fire.tres" type="Material" id=1]

[sub_resource type="SphereMesh" id=1]

[node name="Fire" type="MeshInstance"]
mesh = SubResource( 1 )
material/0 = ExtResource( 1 )
