[gd_resource type="Animation" format=2]

[resource]
resource_name = "mixamo.com"
length = 0.633333
loop = true
tracks/0/type = "transform"
tracks/0/path = NodePath("Skeleton:Spine2")
tracks/0/interp = 1
tracks/0/loop_wrap = true
tracks/0/imported = false
tracks/0/enabled = true
tracks/0/keys = PoolRealArray( 0, 1, 0, 0, 0, 0.134393, -0.0090449, -0.000804264, 0.990887, 1, 1, 1, 0.0333333, 1, 0, 0, 0, 0.127758, -0.00251889, -0.0103739, 0.991748, 1, 1, 1, 0.0666667, 1, 0, 0, 0, 0.116318, 0.00183183, -0.0187945, 0.993033, 1, 1, 1, 0.1, 1, 0, 0, 0, 0.101774, 0.00299785, -0.0223582, 0.994552, 1, 1, 1, 0.133333, 1, 0, 0, 0, 0.0914863, 0.00161551, -0.0189808, 0.995624, 1, 1, 1, 0.166667, 1, 0, 0, 0, 0.0934154, -0.000898143, -0.0111924, 0.995564, 1, 1, 1, 0.2, 1, 0, 0, 0, 0.106911, -0.00407012, -0.00490967, 0.994248, 1, 1, 1, 0.233333, 1, 0, 0, 0, 0.122997, -0.00786707, -0.00367081, 0.992369, 1, 1, 1, 0.266667, 1, 0, 0, 0, 0.133126, -0.0120051, -0.00484908, 0.991014, 1, 1, 1, 0.3, 1, 0, 0, 0, 0.134489, -0.0161849, -0.00275548, 0.990779, 1, 1, 1, 0.333333, 1, 0, 0, 0, 0.127777, -0.0201314, 0.00524869, 0.991585, 1, 1, 1, 0.366667, 1, 0, 0, 0, 0.113667, -0.0235613, 0.0163075, 0.993106, 1, 1, 1, 0.4, 1, 0, 0, 0, 0.0950092, -0.0263323, 0.024725, 0.994821, 1, 1, 1, 0.433333, 1, 0, 0, 0, 0.0807682, -0.0286048, 0.0264505, 0.995971, 1, 1, 1, 0.466667, 1, 0, 0, 0, 0.0805304, -0.0302176, 0.0221211, 0.996048, 1, 1, 1, 0.5, 1, 0, 0, 0, 0.0943337, -0.0301559, 0.0163257, 0.99495, 1, 1, 1, 0.533333, 1, 0, 0, 0, 0.11331, -0.0276152, 0.012839, 0.993093, 1, 1, 1, 0.566667, 1, 0, 0, 0, 0.128355, -0.022724, 0.0108824, 0.991408, 1, 1, 1, 0.6, 1, 0, 0, 0, 0.135369, -0.0162074, 0.00707707, 0.990637, 1, 1, 1 )
tracks/1/type = "transform"
tracks/1/path = NodePath("Skeleton:RightShoulder")
tracks/1/interp = 1
tracks/1/loop_wrap = true
tracks/1/imported = false
tracks/1/enabled = true
tracks/1/keys = PoolRealArray( 0, 1, 0, 0, 0, 0.0270578, -0.0626419, -0.0152351, 0.997553, 1, 1, 1, 0.0333333, 1, 0, 0, 0, 0.0270097, -0.0633627, -0.015775, 0.9975, 1, 1, 1, 0.0666667, 1, 0, 0, 0, 0.0274305, -0.0644662, -0.0118968, 0.997472, 1, 1, 1, 0.1, 1, 0, 0, 0, 0.0282309, -0.0666303, -0.00461863, 0.997368, 1, 1, 1, 0.133333, 1, 0, 0, 0, 0.0288947, -0.0686132, 0.00118824, 0.997224, 1, 1, 1, 0.166667, 1, 0, 0, 0, 0.0288391, -0.0676459, 0.000796929, 0.997292, 1, 1, 1, 0.2, 1, 0, 0, 0, 0.0281798, -0.0633782, -0.00479565, 0.99758, 1, 1, 1, 0.233333, 1, 0, 0, 0, 0.0275439, -0.0599254, -0.0105779, 0.997767, 1, 1, 1, 0.266667, 1, 0, 0, 0, 0.0271824, -0.0614863, -0.0141372, 0.997638, 1, 1, 1, 0.3, 1, 0, 0, 0, 0.0268757, -0.0667004, -0.0172376, 0.997262, 1, 1, 1, 0.333333, 1, 0, 0, 0, 0.0265361, -0.0700056, -0.0204563, 0.996984, 1, 1, 1, 0.366667, 1, 0, 0, 0, 0.0265809, -0.0686133, -0.0201337, 0.997086, 1, 1, 1, 0.4, 1, 0, 0, 0, 0.0273321, -0.0658915, -0.0131122, 0.997366, 1, 1, 1, 0.433333, 1, 0, 0, 0, 0.0284384, -0.0669921, -0.00275348, 0.997344, 1, 1, 1, 0.466667, 1, 0, 0, 0, 0.0291047, -0.0724114, 0.00258028, 0.996947, 1, 1, 1, 0.5, 1, 0, 0, 0, 0.02871, -0.0771211, -0.00163332, 0.996607, 1, 1, 1, 0.533333, 1, 0, 0, 0, 0.0276837, -0.0761867, -0.0105269, 0.996654, 1, 1, 1, 0.566667, 1, 0, 0, 0, 0.0270485, -0.07028, -0.0159435, 0.997033, 1, 1, 1, 0.6, 1, 0, 0, 0, 0.0270049, -0.0643623, -0.0160381, 0.997432, 1, 1, 1 )
tracks/2/type = "transform"
tracks/2/path = NodePath("Skeleton:RightArm")
tracks/2/interp = 1
tracks/2/loop_wrap = true
tracks/2/imported = false
tracks/2/enabled = true
tracks/2/keys = PoolRealArray( 0, 1, 0, 0, 0, 0.185958, 0.14625, 0.505515, 0.82975, 1, 1, 1, 0.0333333, 1, 0, 0, 0, 0.194794, 0.131648, 0.508402, 0.828403, 1, 1, 1, 0.0666667, 1, 0, 0, 0, 0.200807, 0.103045, 0.520167, 0.823702, 1, 1, 1, 0.1, 1, 0, 0, 0, 0.202707, 0.0672469, 0.533022, 0.818703, 1, 1, 1, 0.133333, 1, 0, 0, 0, 0.200276, 0.0418852, 0.537978, 0.81775, 1, 1, 1, 0.166667, 1, 0, 0, 0, 0.192848, 0.0466315, 0.529955, 0.82449, 1, 1, 1, 0.2, 1, 0, 0, 0, 0.17773, 0.083462, 0.515496, 0.834093, 1, 1, 1, 0.233333, 1, 0, 0, 0, 0.154117, 0.131295, 0.507534, 0.837508, 1, 1, 1, 0.266667, 1, 0, 0, 0, 0.127056, 0.164736, 0.512349, 0.833197, 1, 1, 1, 0.3, 1, 0, 0, 0, 0.107734, 0.172218, 0.524721, 0.826682, 1, 1, 1, 0.333333, 1, 0, 0, 0, 0.106271, 0.156514, 0.531328, 0.825773, 1, 1, 1, 0.366667, 1, 0, 0, 0, 0.124372, 0.121875, 0.523079, 0.834306, 1, 1, 1, 0.4, 1, 0, 0, 0, 0.155122, 0.0691728, 0.50739, 0.844812, 1, 1, 1, 0.433333, 1, 0, 0, 0, 0.178296, 0.017471, 0.501033, 0.846683, 1, 1, 1, 0.466667, 1, 0, 0, 0, 0.175622, -0.00147857, 0.508884, 0.842729, 1, 1, 1, 0.5, 1, 0, 0, 0, 0.157854, 0.018587, 0.525013, 0.836121, 1, 1, 1, 0.533333, 1, 0, 0, 0, 0.149237, 0.0601064, 0.536056, 0.82871, 1, 1, 1, 0.566667, 1, 0, 0, 0, 0.156512, 0.104964, 0.530537, 0.826448, 1, 1, 1, 0.6, 1, 0, 0, 0, 0.170857, 0.138238, 0.51437, 0.828928, 1, 1, 1 )
tracks/3/type = "transform"
tracks/3/path = NodePath("Skeleton:RightForeArm")
tracks/3/interp = 1
tracks/3/loop_wrap = true
tracks/3/imported = false
tracks/3/enabled = true
tracks/3/keys = PoolRealArray( 0, 1, 0, 0, 0, 0.0240244, 0.257897, 0.120018, 0.958388, 1, 1, 1, 0.0333333, 1, 0, 0, 0, 0.0132868, 0.286529, 0.112869, 0.951307, 1, 1, 1, 0.0666667, 1, 0, 0, 0, 0.019403, 0.306582, 0.108202, 0.945475, 1, 1, 1, 0.1, 1, 0, 0, 0, 0.038129, 0.319571, 0.104533, 0.941007, 1, 1, 1, 0.133333, 1, 0, 0, 0, 0.0549798, 0.326883, 0.101693, 0.937968, 1, 1, 1, 0.166667, 1, 0, 0, 0, 0.0551283, 0.324215, 0.102313, 0.938817, 1, 1, 1, 0.2, 1, 0, 0, 0, 0.0397093, 0.305106, 0.108808, 0.945248, 1, 1, 1, 0.233333, 1, 0, 0, 0, 0.024795, 0.271281, 0.119412, 0.954742, 1, 1, 1, 0.266667, 1, 0, 0, 0, 0.0240924, 0.234906, 0.130746, 0.962883, 1, 1, 1, 0.3, 1, 0, 0, 0, 0.0363181, 0.209759, 0.140218, 0.966965, 1, 1, 1, 0.333333, 1, 0, 0, 0, 0.050727, 0.202911, 0.144998, 0.967073, 1, 1, 1, 0.366667, 1, 0, 0, 0, 0.0614661, 0.213756, 0.143156, 0.964384, 1, 1, 1, 0.4, 1, 0, 0, 0, 0.0709101, 0.235614, 0.135627, 0.95972, 1, 1, 1, 0.433333, 1, 0, 0, 0, 0.0805406, 0.257962, 0.126174, 0.954489, 1, 1, 1, 0.466667, 1, 0, 0, 0, 0.0860966, 0.271882, 0.119677, 0.950971, 1, 1, 1, 0.5, 1, 0, 0, 0, 0.0817985, 0.274548, 0.118622, 0.950716, 1, 1, 1, 0.533333, 1, 0, 0, 0, 0.0656048, 0.268584, 0.121036, 0.953367, 1, 1, 1, 0.566667, 1, 0, 0, 0, 0.0431298, 0.259771, 0.123025, 0.95683, 1, 1, 1, 0.6, 1, 0, 0, 0, 0.0259299, 0.254649, 0.122619, 0.958878, 1, 1, 1 )
tracks/4/type = "transform"
tracks/4/path = NodePath("Skeleton:LeftHandThumb1")
tracks/4/interp = 1
tracks/4/loop_wrap = true
tracks/4/imported = false
tracks/4/enabled = true
tracks/4/keys = PoolRealArray( 0, 1, 0, 0, 0, 0.474065, -0.101757, 0.243766, 0.839932, 1, 1, 1, 0.0333333, 1, 0, 0, 0, 0.474065, -0.101757, 0.243766, 0.839932, 1, 1, 1, 0.0666667, 1, 0, 0, 0, 0.474065, -0.101757, 0.243766, 0.839932, 1, 1, 1, 0.1, 1, 0, 0, 0, 0.474065, -0.101757, 0.243766, 0.839932, 1, 1, 1, 0.133333, 1, 0, 0, 0, 0.474065, -0.101757, 0.243766, 0.839932, 1, 1, 1, 0.166667, 1, 0, 0, 0, 0.474065, -0.101757, 0.243766, 0.839932, 1, 1, 1, 0.2, 1, 0, 0, 0, 0.474065, -0.101757, 0.243766, 0.839932, 1, 1, 1, 0.233333, 1, 0, 0, 0, 0.474065, -0.101757, 0.243766, 0.839932, 1, 1, 1, 0.266667, 1, 0, 0, 0, 0.474065, -0.101757, 0.243766, 0.839932, 1, 1, 1, 0.3, 1, 0, 0, 0, 0.474065, -0.101757, 0.243766, 0.839932, 1, 1, 1, 0.333333, 1, 0, 0, 0, 0.474065, -0.101757, 0.243766, 0.839932, 1, 1, 1, 0.366667, 1, 0, 0, 0, 0.474065, -0.101757, 0.243766, 0.839932, 1, 1, 1, 0.4, 1, 0, 0, 0, 0.474065, -0.101757, 0.243766, 0.839932, 1, 1, 1, 0.433333, 1, 0, 0, 0, 0.474065, -0.101757, 0.243766, 0.839932, 1, 1, 1, 0.466667, 1, 0, 0, 0, 0.474065, -0.101757, 0.243766, 0.839932, 1, 1, 1, 0.5, 1, 0, 0, 0, 0.474065, -0.101757, 0.243766, 0.839932, 1, 1, 1, 0.533333, 1, 0, 0, 0, 0.474065, -0.101757, 0.243766, 0.839932, 1, 1, 1, 0.566667, 1, 0, 0, 0, 0.474065, -0.101757, 0.243766, 0.839932, 1, 1, 1, 0.6, 1, 0, 0, 0, 0.474065, -0.101757, 0.243766, 0.839932, 1, 1, 1 )
tracks/5/type = "transform"
tracks/5/path = NodePath("Skeleton:LeftHandThumb2")
tracks/5/interp = 1
tracks/5/loop_wrap = true
tracks/5/imported = false
tracks/5/enabled = true
tracks/5/keys = PoolRealArray( 0, 1, 0, 0, 0, 0.0781957, 0.180467, 0.0450294, 0.979433, 1, 1, 1, 0.0333333, 1, 0, 0, 0, 0.0781957, 0.180467, 0.0450294, 0.979433, 1, 1, 1, 0.0666667, 1, 0, 0, 0, 0.0781957, 0.180467, 0.0450294, 0.979433, 1, 1, 1, 0.1, 1, 0, 0, 0, 0.0781957, 0.180467, 0.0450294, 0.979433, 1, 1, 1, 0.133333, 1, 0, 0, 0, 0.0781957, 0.180467, 0.0450294, 0.979433, 1, 1, 1, 0.166667, 1, 0, 0, 0, 0.0781957, 0.180467, 0.0450294, 0.979433, 1, 1, 1, 0.2, 1, 0, 0, 0, 0.0781957, 0.180467, 0.0450294, 0.979433, 1, 1, 1, 0.233333, 1, 0, 0, 0, 0.0781957, 0.180467, 0.0450294, 0.979433, 1, 1, 1, 0.266667, 1, 0, 0, 0, 0.0781957, 0.180467, 0.0450294, 0.979433, 1, 1, 1, 0.3, 1, 0, 0, 0, 0.0781957, 0.180467, 0.0450294, 0.979433, 1, 1, 1, 0.333333, 1, 0, 0, 0, 0.0781957, 0.180467, 0.0450294, 0.979433, 1, 1, 1, 0.366667, 1, 0, 0, 0, 0.0781957, 0.180467, 0.0450294, 0.979433, 1, 1, 1, 0.4, 1, 0, 0, 0, 0.0781957, 0.180467, 0.0450294, 0.979433, 1, 1, 1, 0.433333, 1, 0, 0, 0, 0.0781957, 0.180467, 0.0450294, 0.979433, 1, 1, 1, 0.466667, 1, 0, 0, 0, 0.0781957, 0.180467, 0.0450294, 0.979433, 1, 1, 1, 0.5, 1, 0, 0, 0, 0.0781957, 0.180467, 0.0450294, 0.979433, 1, 1, 1, 0.533333, 1, 0, 0, 0, 0.0781957, 0.180467, 0.0450294, 0.979433, 1, 1, 1, 0.566667, 1, 0, 0, 0, 0.0781957, 0.180467, 0.0450294, 0.979433, 1, 1, 1, 0.6, 1, 0, 0, 0, 0.0781957, 0.180467, 0.0450294, 0.979433, 1, 1, 1 )
tracks/6/type = "transform"
tracks/6/path = NodePath("Skeleton:LeftHandThumb3")
tracks/6/interp = 1
tracks/6/loop_wrap = true
tracks/6/imported = false
tracks/6/enabled = true
tracks/6/keys = PoolRealArray( 0, 1, 0, 0, 0, -0.00206522, -0.00482715, -0.00125033, 0.999986, 1, 1, 1, 0.0333333, 1, 0, 0, 0, -0.00206522, -0.00482715, -0.00125033, 0.999986, 1, 1, 1, 0.0666667, 1, 0, 0, 0, -0.00206522, -0.00482715, -0.00125033, 0.999986, 1, 1, 1, 0.1, 1, 0, 0, 0, -0.00206522, -0.00482715, -0.00125033, 0.999986, 1, 1, 1, 0.133333, 1, 0, 0, 0, -0.00206522, -0.00482715, -0.00125033, 0.999986, 1, 1, 1, 0.166667, 1, 0, 0, 0, -0.00206522, -0.00482715, -0.00125033, 0.999986, 1, 1, 1, 0.2, 1, 0, 0, 0, -0.00206522, -0.00482715, -0.00125033, 0.999986, 1, 1, 1, 0.233333, 1, 0, 0, 0, -0.00206522, -0.00482715, -0.00125033, 0.999986, 1, 1, 1, 0.266667, 1, 0, 0, 0, -0.00206522, -0.00482715, -0.00125033, 0.999986, 1, 1, 1, 0.3, 1, 0, 0, 0, -0.00206522, -0.00482715, -0.00125033, 0.999986, 1, 1, 1, 0.333333, 1, 0, 0, 0, -0.00206522, -0.00482715, -0.00125033, 0.999986, 1, 1, 1, 0.366667, 1, 0, 0, 0, -0.00206522, -0.00482715, -0.00125033, 0.999986, 1, 1, 1, 0.4, 1, 0, 0, 0, -0.00206522, -0.00482715, -0.00125033, 0.999986, 1, 1, 1, 0.433333, 1, 0, 0, 0, -0.00206522, -0.00482715, -0.00125033, 0.999986, 1, 1, 1, 0.466667, 1, 0, 0, 0, -0.00206522, -0.00482715, -0.00125033, 0.999986, 1, 1, 1, 0.5, 1, 0, 0, 0, -0.00206522, -0.00482715, -0.00125033, 0.999986, 1, 1, 1, 0.533333, 1, 0, 0, 0, -0.00206522, -0.00482715, -0.00125033, 0.999986, 1, 1, 1, 0.566667, 1, 0, 0, 0, -0.00206522, -0.00482715, -0.00125033, 0.999986, 1, 1, 1, 0.6, 1, 0, 0, 0, -0.00206522, -0.00482715, -0.00125033, 0.999986, 1, 1, 1 )
tracks/7/type = "transform"
tracks/7/path = NodePath("Skeleton:LeftArm")
tracks/7/interp = 1
tracks/7/loop_wrap = true
tracks/7/imported = false
tracks/7/enabled = true
tracks/7/keys = PoolRealArray( 0, 1, 0, 0, 0, 0.264988, -0.223681, -0.474023, 0.809352, 1, 1, 1, 0.0333333, 1, 0, 0, 0, 0.279107, -0.202639, -0.479053, 0.807183, 1, 1, 1, 0.0666667, 1, 0, 0, 0, 0.299707, -0.175993, -0.474905, 0.808497, 1, 1, 1, 0.1, 1, 0, 0, 0, 0.322164, -0.146729, -0.468628, 0.809363, 1, 1, 1, 0.133333, 1, 0, 0, 0, 0.333072, -0.127719, -0.468895, 0.808015, 1, 1, 1, 0.166667, 1, 0, 0, 0, 0.323438, -0.132026, -0.477152, 0.806402, 1, 1, 1, 0.2, 1, 0, 0, 0, 0.303422, -0.156757, -0.485983, 0.804476, 1, 1, 1, 0.233333, 1, 0, 0, 0, 0.28964, -0.189177, -0.483826, 0.803886, 1, 1, 1, 0.266667, 1, 0, 0, 0, 0.283903, -0.219568, -0.46829, 0.807399, 1, 1, 1, 0.3, 1, 0, 0, 0, 0.278454, -0.23956, -0.455552, 0.810893, 1, 1, 1, 0.333333, 1, 0, 0, 0, 0.273412, -0.240815, -0.464084, 0.807391, 1, 1, 1, 0.366667, 1, 0, 0, 0, 0.275405, -0.222142, -0.492668, 0.795037, 1, 1, 1, 0.4, 1, 0, 0, 0, 0.284263, -0.194961, -0.52347, 0.779207, 1, 1, 1, 0.433333, 1, 0, 0, 0, 0.295141, -0.172816, -0.53913, 0.769653, 1, 1, 1, 0.466667, 1, 0, 0, 0, 0.303575, -0.162583, -0.534275, 0.771984, 1, 1, 1, 0.5, 1, 0, 0, 0, 0.304103, -0.167037, -0.517235, 0.78236, 1, 1, 1, 0.533333, 1, 0, 0, 0, 0.29648, -0.182204, -0.500522, 0.792704, 1, 1, 1, 0.566667, 1, 0, 0, 0, 0.284751, -0.200334, -0.488845, 0.799883, 1, 1, 1, 0.6, 1, 0, 0, 0, 0.272819, -0.215463, -0.480689, 0.805036, 1, 1, 1 )
tracks/8/type = "transform"
tracks/8/path = NodePath("Skeleton:LeftForeArm")
tracks/8/interp = 1
tracks/8/loop_wrap = true
tracks/8/imported = false
tracks/8/enabled = true
tracks/8/keys = PoolRealArray( 0, 1, 0, 0, 0, -0.126524, -0.238793, -0.110255, 0.956459, 1, 1, 1, 0.0333333, 1, 0, 0, 0, -0.10985, -0.24171, -0.112777, 0.957492, 1, 1, 1, 0.0666667, 1, 0, 0, 0, -0.0928704, -0.250611, -0.113462, 0.95692, 1, 1, 1, 0.1, 1, 0, 0, 0, -0.0753633, -0.261606, -0.112604, 0.955617, 1, 1, 1, 0.133333, 1, 0, 0, 0, -0.0639875, -0.269662, -0.110428, 0.95446, 1, 1, 1, 0.166667, 1, 0, 0, 0, -0.0679455, -0.271506, -0.107717, 0.953973, 1, 1, 1, 0.2, 1, 0, 0, 0, -0.0882102, -0.267485, -0.105943, 0.953649, 1, 1, 1, 0.233333, 1, 0, 0, 0, -0.116054, -0.261245, -0.105794, 0.952413, 1, 1, 1, 0.266667, 1, 0, 0, 0, -0.140487, -0.258552, -0.105784, 0.949855, 1, 1, 1, 0.3, 1, 0, 0, 0, -0.153201, -0.263618, -0.103767, 0.946714, 1, 1, 1, 0.333333, 1, 0, 0, 0, -0.150351, -0.274505, -0.0999609, 0.944484, 1, 1, 1, 0.366667, 1, 0, 0, 0, -0.133855, -0.284834, -0.097222, 0.944193, 1, 1, 1, 0.4, 1, 0, 0, 0, -0.111614, -0.290934, -0.0977292, 0.945171, 1, 1, 1, 0.433333, 1, 0, 0, 0, -0.095714, -0.293676, -0.100315, 0.945796, 1, 1, 1, 0.466667, 1, 0, 0, 0, -0.095674, -0.293184, -0.102583, 0.945709, 1, 1, 1, 0.5, 1, 0, 0, 0, -0.110972, -0.286444, -0.104245, 0.945922, 1, 1, 1, 0.533333, 1, 0, 0, 0, -0.131653, -0.27214, -0.106165, 0.947278, 1, 1, 1, 0.566667, 1, 0, 0, 0, -0.145021, -0.25516, -0.108199, 0.949819, 1, 1, 1, 0.6, 1, 0, 0, 0, -0.14335, -0.242817, -0.109693, 0.953131, 1, 1, 1 )
tracks/9/type = "transform"
tracks/9/path = NodePath("Skeleton:LeftShoulder")
tracks/9/interp = 1
tracks/9/loop_wrap = true
tracks/9/imported = false
tracks/9/enabled = true
tracks/9/keys = PoolRealArray( 0, 1, 0, 0, 0, 0.0276252, 0.0975118, 0.0802699, 0.991607, 1, 1, 1, 0.0333333, 1, 0, 0, 0, 0.0270115, 0.0969224, 0.0843721, 0.991341, 1, 1, 1, 0.0666667, 1, 0, 0, 0, 0.0264129, 0.0939342, 0.0869655, 0.991421, 1, 1, 1, 0.1, 1, 0, 0, 0, 0.0262059, 0.0893457, 0.0858572, 0.991947, 1, 1, 1, 0.133333, 1, 0, 0, 0, 0.0264297, 0.0852731, 0.0817797, 0.992644, 1, 1, 1, 0.166667, 1, 0, 0, 0, 0.0267472, 0.0841653, 0.0787359, 0.992976, 1, 1, 1, 0.2, 1, 0, 0, 0, 0.0268228, 0.0865877, 0.0797073, 0.992688, 1, 1, 1, 0.233333, 1, 0, 0, 0, 0.0266735, 0.0903463, 0.0830187, 0.992086, 1, 1, 1, 0.266667, 1, 0, 0, 0, 0.0266072, 0.0923824, 0.0846298, 0.991764, 1, 1, 1, 0.3, 1, 0, 0, 0, 0.0267818, 0.0918881, 0.0831381, 0.991931, 1, 1, 1, 0.333333, 1, 0, 0, 0, 0.0271355, 0.0912684, 0.0802609, 0.992216, 1, 1, 1, 0.366667, 1, 0, 0, 0, 0.0277345, 0.093449, 0.077094, 0.992247, 1, 1, 1, 0.4, 1, 0, 0, 0, 0.0286586, 0.098101, 0.0729966, 0.992082, 1, 1, 1, 0.433333, 1, 0, 0, 0, 0.0295412, 0.101293, 0.0685505, 0.992052, 1, 1, 1, 0.466667, 1, 0, 0, 0, 0.029686, 0.0997429, 0.0666456, 0.992335, 1, 1, 1, 0.5, 1, 0, 0, 0, 0.0289624, 0.0949698, 0.0690658, 0.992659, 1, 1, 1, 0.533333, 1, 0, 0, 0, 0.0280717, 0.0918353, 0.073846, 0.992635, 1, 1, 1, 0.566667, 1, 0, 0, 0, 0.027645, 0.0929166, 0.0776268, 0.992258, 1, 1, 1, 0.6, 1, 0, 0, 0, 0.0276427, 0.0960747, 0.0793515, 0.991821, 1, 1, 1 )
tracks/10/type = "transform"
tracks/10/path = NodePath("Skeleton:Neck")
tracks/10/interp = 1
tracks/10/loop_wrap = true
tracks/10/imported = false
tracks/10/enabled = true
tracks/10/keys = PoolRealArray( 0, 1, 0, 0, 0, -0.243597, -0.00632081, 0.0512192, 0.968503, 1, 1, 1, 0.0333333, 1, 0, 0, 0, -0.22566, -0.0207694, 0.0643282, 0.971858, 1, 1, 1, 0.0666667, 1, 0, 0, 0, -0.18751, -0.0357382, 0.0820313, 0.978179, 1, 1, 1, 0.1, 1, 0, 0, 0, -0.137565, -0.0485926, 0.0985874, 0.984375, 1, 1, 1, 0.133333, 1, 0, 0, 0, -0.0987055, -0.0548928, 0.106677, 0.987858, 1, 1, 1, 0.166667, 1, 0, 0, 0, -0.092726, -0.051311, 0.103572, 0.98896, 1, 1, 1, 0.2, 1, 0, 0, 0, -0.120081, -0.0404545, 0.0943037, 0.987447, 1, 1, 1, 0.233333, 1, 0, 0, 0, -0.163251, -0.0283601, 0.0863841, 0.982386, 1, 1, 1, 0.266667, 1, 0, 0, 0, -0.202564, -0.0181107, 0.0819091, 0.975669, 1, 1, 1, 0.3, 1, 0, 0, 0, -0.223632, -0.00869553, 0.0761834, 0.971653, 1, 1, 1, 0.333333, 1, 0, 0, 0, -0.218194, 0.00172186, 0.063781, 0.973817, 1, 1, 1, 0.366667, 1, 0, 0, 0, -0.186657, 0.013158, 0.0447315, 0.981318, 1, 1, 1, 0.4, 1, 0, 0, 0, -0.142836, 0.0234994, 0.0252985, 0.989144, 1, 1, 1, 0.433333, 1, 0, 0, 0, -0.1118, 0.0293369, 0.0136502, 0.993204, 1, 1, 1, 0.466667, 1, 0, 0, 0, -0.111699, 0.0285361, 0.013766, 0.993237, 1, 1, 1, 0.5, 1, 0, 0, 0, -0.138808, 0.0229204, 0.0224157, 0.9898, 1, 1, 1, 0.533333, 1, 0, 0, 0, -0.176922, 0.0161473, 0.0326855, 0.98355, 1, 1, 1, 0.566667, 1, 0, 0, 0, -0.211966, 0.00984431, 0.0403323, 0.976395, 1, 1, 1, 0.6, 1, 0, 0, 0, -0.235514, 0.00299634, 0.0457445, 0.970789, 1, 1, 1 )
tracks/11/type = "transform"
tracks/11/path = NodePath("Skeleton:Head")
tracks/11/interp = 1
tracks/11/loop_wrap = true
tracks/11/imported = false
tracks/11/enabled = true
tracks/11/keys = PoolRealArray( 0, 1, 0, 0, 0, -0.405091, -0.000166966, -0.00102816, 0.914276, 1, 1, 1, 0.0333333, 1, 0, 0, 0, -0.400443, -0.0153409, 0.00997139, 0.916139, 1, 1, 1, 0.0666667, 1, 0, 0, 0, -0.396429, -0.0291433, 0.0174222, 0.917437, 1, 1, 1, 0.1, 1, 0, 0, 0, -0.391555, -0.0380274, 0.0185063, 0.919182, 1, 1, 1, 0.133333, 1, 0, 0, 0, -0.387112, -0.0388835, 0.0136916, 0.921111, 1, 1, 1, 0.166667, 1, 0, 0, 0, -0.386061, -0.0315568, 0.0077539, 0.921901, 1, 1, 1, 0.2, 1, 0, 0, 0, -0.388571, -0.0199008, 0.00500762, 0.92119, 1, 1, 1, 0.233333, 1, 0, 0, 0, -0.391544, -0.00920966, 0.00481473, 0.920101, 1, 1, 1, 0.266667, 1, 0, 0, 0, -0.393003, -0.00169339, 0.00312768, 0.91953, 1, 1, 1, 0.3, 1, 0, 0, 0, -0.394218, 0.00540176, -0.00282671, 0.918997, 1, 1, 1, 0.333333, 1, 0, 0, 0, -0.395804, 0.0161053, -0.0126885, 0.918106, 1, 1, 1, 0.366667, 1, 0, 0, 0, -0.393358, 0.030154, -0.0239645, 0.918578, 1, 1, 1, 0.4, 1, 0, 0, 0, -0.38247, 0.0422918, -0.0325915, 0.922424, 1, 1, 1, 0.433333, 1, 0, 0, 0, -0.368661, 0.046824, -0.034734, 0.927734, 1, 1, 1, 0.466667, 1, 0, 0, 0, -0.363832, 0.0424743, -0.0304703, 0.929997, 1, 1, 1, 0.5, 1, 0, 0, 0, -0.371592, 0.0333788, -0.0239616, 0.927487, 1, 1, 1, 0.533333, 1, 0, 0, 0, -0.384875, 0.024766, -0.0189505, 0.922442, 1, 1, 1, 0.566667, 1, 0, 0, 0, -0.39612, 0.018078, -0.0150972, 0.917897, 1, 1, 1, 0.6, 1, 0, 0, 0, -0.402767, 0.0108479, -0.00965964, 0.915187, 1, 1, 1 )
tracks/12/type = "transform"
tracks/12/path = NodePath("Skeleton:Spine")
tracks/12/interp = 1
tracks/12/loop_wrap = true
tracks/12/imported = false
tracks/12/enabled = true
tracks/12/keys = PoolRealArray( 0, 1, 0, 0, 0, 0.177801, 0.00234338, 0.0101993, 0.984011, 1, 1, 1, 0.0333333, 1, 0, 0, 0, 0.170232, 0.0128739, -0.0098626, 0.985271, 1, 1, 1, 0.0666667, 1, 0, 0, 0, 0.156281, 0.025513, -0.0334044, 0.986818, 1, 1, 1, 0.1, 1, 0, 0, 0, 0.139695, 0.0385913, -0.0496575, 0.988195, 1, 1, 1, 0.133333, 1, 0, 0, 0, 0.129084, 0.0453179, -0.0516245, 0.989251, 1, 1, 1, 0.166667, 1, 0, 0, 0, 0.131989, 0.0363033, -0.0418292, 0.989703, 1, 1, 1, 0.2, 1, 0, 0, 0, 0.146789, 0.0125092, -0.0283354, 0.988683, 1, 1, 1, 0.233333, 1, 0, 0, 0, 0.164412, -0.0115858, -0.0226201, 0.986064, 1, 1, 1, 0.266667, 1, 0, 0, 0, 0.176954, -0.0258981, -0.0213341, 0.983647, 1, 1, 1, 0.3, 1, 0, 0, 0, 0.181014, -0.0334193, -0.0146352, 0.982804, 1, 1, 1, 0.333333, 1, 0, 0, 0, 0.174837, -0.0410803, 0.00336947, 0.983734, 1, 1, 1, 0.366667, 1, 0, 0, 0, 0.157813, -0.0554916, 0.0280196, 0.98551, 1, 1, 1, 0.4, 1, 0, 0, 0, 0.134886, -0.0758712, 0.0478113, 0.986794, 1, 1, 1, 0.433333, 1, 0, 0, 0, 0.117979, -0.0913197, 0.0549649, 0.987279, 1, 1, 1, 0.466667, 1, 0, 0, 0, 0.117417, -0.0903856, 0.0489815, 0.987747, 1, 1, 1, 0.5, 1, 0, 0, 0, 0.132263, -0.0716378, 0.0362667, 0.987957, 1, 1, 1, 0.533333, 1, 0, 0, 0, 0.152482, -0.0468584, 0.0283564, 0.986787, 1, 1, 1, 0.566667, 1, 0, 0, 0, 0.168641, -0.0265509, 0.0261726, 0.984972, 1, 1, 1, 0.6, 1, 0, 0, 0, 0.177083, -0.0112661, 0.0219692, 0.983886, 1, 1, 1 )
tracks/13/type = "transform"
tracks/13/path = NodePath("Skeleton:Spine1")
tracks/13/interp = 1
tracks/13/loop_wrap = true
tracks/13/imported = false
tracks/13/enabled = true
tracks/13/keys = PoolRealArray( 0, 1, 0, 0, 0, 0.0655532, -0.00558447, -0.00295699, 0.997829, 1, 1, 1, 0.0333333, 1, 0, 0, 0, 0.0587175, 0.000459624, -0.0123478, 0.998198, 1, 1, 1, 0.0666667, 1, 0, 0, 0, 0.0471189, 0.00485466, -0.0205112, 0.998667, 1, 1, 1, 0.1, 1, 0, 0, 0, 0.0324814, 0.00634461, -0.0238596, 0.999167, 1, 1, 1, 0.133333, 1, 0, 0, 0, 0.0221754, 0.00505807, -0.0204492, 0.999532, 1, 1, 1, 0.166667, 1, 0, 0, 0, 0.0241685, 0.00217341, -0.0128291, 0.999623, 1, 1, 1, 0.2, 1, 0, 0, 0, 0.0377975, -0.00143798, -0.00680018, 0.999261, 1, 1, 1, 0.233333, 1, 0, 0, 0, 0.0540421, -0.00520996, -0.00576419, 0.998508, 1, 1, 1, 0.266667, 1, 0, 0, 0, 0.0643352, -0.00875519, -0.00706767, 0.997865, 1, 1, 1, 0.3, 1, 0, 0, 0, 0.0658564, -0.0122289, -0.0051102, 0.997741, 1, 1, 1, 0.333333, 1, 0, 0, 0, 0.0592343, -0.016205, 0.00263662, 0.998109, 1, 1, 1, 0.366667, 1, 0, 0, 0, 0.0450807, -0.0209239, 0.0132278, 0.998677, 1, 1, 1, 0.4, 1, 0, 0, 0, 0.0262762, -0.0256416, 0.0210087, 0.999105, 1, 1, 1, 0.433333, 1, 0, 0, 0, 0.0119146, -0.0290756, 0.0222074, 0.999259, 1, 1, 1, 0.466667, 1, 0, 0, 0, 0.011718, -0.0301607, 0.0178035, 0.999318, 1, 1, 1, 0.5, 1, 0, 0, 0, 0.025714, -0.0284078, 0.012479, 0.999188, 1, 1, 1, 0.533333, 1, 0, 0, 0, 0.0448535, -0.0242317, 0.00971374, 0.998653, 1, 1, 1, 0.566667, 1, 0, 0, 0, 0.059888, -0.0185362, 0.00832411, 0.997998, 1, 1, 1, 0.6, 1, 0, 0, 0, 0.0667387, -0.0121035, 0.0047996, 0.997686, 1, 1, 1 )
tracks/14/type = "transform"
tracks/14/path = NodePath("Skeleton:LeftHandIndex2")
tracks/14/interp = 1
tracks/14/loop_wrap = true
tracks/14/imported = false
tracks/14/enabled = true
tracks/14/keys = PoolRealArray( 0, 1, 0, 0, 0, -3.92865e-07, -2.14405e-05, -8.63245e-06, 1, 1, 1, 1, 0.0333333, 1, 0, 0, 0, -3.92865e-07, -2.14405e-05, -8.63245e-06, 1, 1, 1, 1, 0.0666667, 1, 0, 0, 0, -3.92865e-07, -2.14405e-05, -8.63245e-06, 1, 1, 1, 1, 0.1, 1, 0, 0, 0, -3.92865e-07, -2.14405e-05, -8.63245e-06, 1, 1, 1, 1, 0.133333, 1, 0, 0, 0, -3.92865e-07, -2.14405e-05, -8.63245e-06, 1, 1, 1, 1, 0.166667, 1, 0, 0, 0, -3.92865e-07, -2.14405e-05, -8.63245e-06, 1, 1, 1, 1, 0.2, 1, 0, 0, 0, -3.92865e-07, -2.14405e-05, -8.63245e-06, 1, 1, 1, 1, 0.233333, 1, 0, 0, 0, -3.92865e-07, -2.14405e-05, -8.63245e-06, 1, 1, 1, 1, 0.266667, 1, 0, 0, 0, -3.92865e-07, -2.14405e-05, -8.63245e-06, 1, 1, 1, 1, 0.3, 1, 0, 0, 0, -3.92865e-07, -2.14405e-05, -8.63245e-06, 1, 1, 1, 1, 0.333333, 1, 0, 0, 0, -3.92865e-07, -2.14405e-05, -8.63245e-06, 1, 1, 1, 1, 0.366667, 1, 0, 0, 0, -3.92865e-07, -2.14405e-05, -8.63245e-06, 1, 1, 1, 1, 0.4, 1, 0, 0, 0, -3.92865e-07, -2.14405e-05, -8.63245e-06, 1, 1, 1, 1, 0.433333, 1, 0, 0, 0, -3.92865e-07, -2.14405e-05, -8.63245e-06, 1, 1, 1, 1, 0.466667, 1, 0, 0, 0, -3.92865e-07, -2.14405e-05, -8.63245e-06, 1, 1, 1, 1, 0.5, 1, 0, 0, 0, -3.92865e-07, -2.14405e-05, -8.63245e-06, 1, 1, 1, 1, 0.533333, 1, 0, 0, 0, -3.92865e-07, -2.14405e-05, -8.63245e-06, 1, 1, 1, 1, 0.566667, 1, 0, 0, 0, -3.92865e-07, -2.14405e-05, -8.63245e-06, 1, 1, 1, 1, 0.6, 1, 0, 0, 0, -3.92865e-07, -2.14405e-05, -8.63245e-06, 1, 1, 1, 1 )
tracks/15/type = "transform"
tracks/15/path = NodePath("Skeleton:LeftHandIndex3")
tracks/15/interp = 1
tracks/15/loop_wrap = true
tracks/15/imported = false
tracks/15/enabled = true
tracks/15/keys = PoolRealArray( 0, 1, 0, 0, 0, 0.00188524, 0.0160063, 0.127478, 0.99171, 1, 1, 1, 0.0333333, 1, 0, 0, 0, 0.00188524, 0.0160063, 0.127478, 0.99171, 1, 1, 1, 0.0666667, 1, 0, 0, 0, 0.00188524, 0.0160063, 0.127478, 0.99171, 1, 1, 1, 0.1, 1, 0, 0, 0, 0.00188524, 0.0160063, 0.127478, 0.99171, 1, 1, 1, 0.133333, 1, 0, 0, 0, 0.00188524, 0.0160063, 0.127478, 0.99171, 1, 1, 1, 0.166667, 1, 0, 0, 0, 0.00188524, 0.0160063, 0.127478, 0.99171, 1, 1, 1, 0.2, 1, 0, 0, 0, 0.00188524, 0.0160063, 0.127478, 0.99171, 1, 1, 1, 0.233333, 1, 0, 0, 0, 0.00188524, 0.0160063, 0.127478, 0.99171, 1, 1, 1, 0.266667, 1, 0, 0, 0, 0.00188524, 0.0160063, 0.127478, 0.99171, 1, 1, 1, 0.3, 1, 0, 0, 0, 0.00188524, 0.0160063, 0.127478, 0.99171, 1, 1, 1, 0.333333, 1, 0, 0, 0, 0.00188524, 0.0160063, 0.127478, 0.99171, 1, 1, 1, 0.366667, 1, 0, 0, 0, 0.00188524, 0.0160063, 0.127478, 0.99171, 1, 1, 1, 0.4, 1, 0, 0, 0, 0.00188524, 0.0160063, 0.127478, 0.99171, 1, 1, 1, 0.433333, 1, 0, 0, 0, 0.00188524, 0.0160063, 0.127478, 0.99171, 1, 1, 1, 0.466667, 1, 0, 0, 0, 0.00188524, 0.0160063, 0.127478, 0.99171, 1, 1, 1, 0.5, 1, 0, 0, 0, 0.00188524, 0.0160063, 0.127478, 0.99171, 1, 1, 1, 0.533333, 1, 0, 0, 0, 0.00188524, 0.0160063, 0.127478, 0.99171, 1, 1, 1, 0.566667, 1, 0, 0, 0, 0.00188524, 0.0160063, 0.127478, 0.99171, 1, 1, 1, 0.6, 1, 0, 0, 0, 0.00188524, 0.0160063, 0.127478, 0.99171, 1, 1, 1 )
tracks/16/type = "transform"
tracks/16/path = NodePath("Skeleton:Hips")
tracks/16/interp = 1
tracks/16/loop_wrap = true
tracks/16/imported = false
tracks/16/enabled = true
tracks/16/keys = PoolRealArray( 0, 1, 0.00852073, -0.236331, 0.268626, 0.375897, 0.0354503, -0.002235, 0.92598, 1, 1, 1 )
tracks/17/type = "transform"
tracks/17/path = NodePath("Skeleton:LeftHand")
tracks/17/interp = 1
tracks/17/loop_wrap = true
tracks/17/imported = false
tracks/17/enabled = true
tracks/17/keys = PoolRealArray( 0, 1, 0, 0, 0, -0.00131256, 0.0210119, -0.193548, 0.980865, 1, 1, 1, 0.0333333, 1, 0, 0, 0, -0.00329385, 0.0297919, -0.196537, 0.980038, 1, 1, 1, 0.0666667, 1, 0, 0, 0, -0.00585322, 0.0401771, -0.198537, 0.979252, 1, 1, 1, 0.1, 1, 0, 0, 0, -0.0083619, 0.0512185, -0.202024, 0.978005, 1, 1, 1, 0.133333, 1, 0, 0, 0, -0.0095203, 0.0585968, -0.207093, 0.976518, 1, 1, 1, 0.166667, 1, 0, 0, 0, -0.00827334, 0.0565123, -0.21058, 0.975907, 1, 1, 1, 0.2, 1, 0, 0, 0, -0.00516653, 0.0440682, -0.208782, 0.976955, 1, 1, 1, 0.233333, 1, 0, 0, 0, -0.00233475, 0.0285046, -0.200328, 0.979311, 1, 1, 1, 0.266667, 1, 0, 0, 0, -0.00198091, 0.0201234, -0.187375, 0.98208, 1, 1, 1, 0.3, 1, 0, 0, 0, -0.00462297, 0.0234165, -0.175095, 0.984262, 1, 1, 1, 0.333333, 1, 0, 0, 0, -0.00839163, 0.0337899, -0.168938, 0.985012, 1, 1, 1, 0.366667, 1, 0, 0, 0, -0.0107977, 0.0436413, -0.170717, 0.984294, 1, 1, 1, 0.4, 1, 0, 0, 0, -0.0114667, 0.0497613, -0.176533, 0.982969, 1, 1, 1, 0.433333, 1, 0, 0, 0, -0.0117044, 0.052779, -0.179635, 0.982247, 1, 1, 1, 0.466667, 1, 0, 0, 0, -0.0120112, 0.0526229, -0.177092, 0.982713, 1, 1, 1, 0.5, 1, 0, 0, 0, -0.011268, 0.0476459, -0.173136, 0.98368, 1, 1, 1, 0.533333, 1, 0, 0, 0, -0.00836566, 0.0373312, -0.173964, 0.984009, 1, 1, 1, 0.566667, 1, 0, 0, 0, -0.0043074, 0.025516, -0.180623, 0.983212, 1, 1, 1, 0.6, 1, 0, 0, 0, -0.00143791, 0.0186966, -0.18882, 0.981833, 1, 1, 1 )
tracks/18/type = "transform"
tracks/18/path = NodePath("Skeleton:LeftHandIndex1")
tracks/18/interp = 1
tracks/18/loop_wrap = true
tracks/18/imported = false
tracks/18/enabled = true
tracks/18/keys = PoolRealArray( 0, 1, 0, 0, 0, -0.00236863, -0.0759443, 0.0757416, 0.994228, 1, 1, 1, 0.0333333, 1, 0, 0, 0, -0.00236863, -0.0759443, 0.0757416, 0.994228, 1, 1, 1, 0.0666667, 1, 0, 0, 0, -0.00236863, -0.0759443, 0.0757416, 0.994228, 1, 1, 1, 0.1, 1, 0, 0, 0, -0.00236863, -0.0759443, 0.0757416, 0.994228, 1, 1, 1, 0.133333, 1, 0, 0, 0, -0.00236863, -0.0759443, 0.0757416, 0.994228, 1, 1, 1, 0.166667, 1, 0, 0, 0, -0.00236863, -0.0759443, 0.0757416, 0.994228, 1, 1, 1, 0.2, 1, 0, 0, 0, -0.00236863, -0.0759443, 0.0757416, 0.994228, 1, 1, 1, 0.233333, 1, 0, 0, 0, -0.00236863, -0.0759443, 0.0757416, 0.994228, 1, 1, 1, 0.266667, 1, 0, 0, 0, -0.00236863, -0.0759443, 0.0757416, 0.994228, 1, 1, 1, 0.3, 1, 0, 0, 0, -0.00236863, -0.0759443, 0.0757416, 0.994228, 1, 1, 1, 0.333333, 1, 0, 0, 0, -0.00236863, -0.0759443, 0.0757416, 0.994228, 1, 1, 1, 0.366667, 1, 0, 0, 0, -0.00236863, -0.0759443, 0.0757416, 0.994228, 1, 1, 1, 0.4, 1, 0, 0, 0, -0.00236863, -0.0759443, 0.0757416, 0.994228, 1, 1, 1, 0.433333, 1, 0, 0, 0, -0.00236863, -0.0759443, 0.0757416, 0.994228, 1, 1, 1, 0.466667, 1, 0, 0, 0, -0.00236863, -0.0759443, 0.0757416, 0.994228, 1, 1, 1, 0.5, 1, 0, 0, 0, -0.00236863, -0.0759443, 0.0757416, 0.994228, 1, 1, 1, 0.533333, 1, 0, 0, 0, -0.00236863, -0.0759443, 0.0757416, 0.994228, 1, 1, 1, 0.566667, 1, 0, 0, 0, -0.00236863, -0.0759443, 0.0757416, 0.994228, 1, 1, 1, 0.6, 1, 0, 0, 0, -0.00236863, -0.0759443, 0.0757416, 0.994228, 1, 1, 1 )
tracks/19/type = "transform"
tracks/19/path = NodePath("Skeleton:LeftUpLeg")
tracks/19/interp = 1
tracks/19/loop_wrap = true
tracks/19/imported = false
tracks/19/enabled = true
tracks/19/keys = PoolRealArray( 0, 1, 0, 0, 0, -0.681372, -0.125357, 0.0416472, 0.719919, 1, 1, 1, 0.0333333, 1, 0, 0, 0, -0.794033, -0.0985187, 0.0387757, 0.598584, 1, 1, 1, 0.0666667, 1, 0, 0, 0, -0.850303, -0.0596815, 0.0235414, 0.522369, 1, 1, 1, 0.1, 1, 0, 0, 0, -0.865066, -0.021535, -0.00206588, 0.501192, 1, 1, 1, 0.133333, 1, 0, 0, 0, -0.850324, -0.00269982, -0.0352005, 0.525075, 1, 1, 1, 0.166667, 1, 0, 0, 0, -0.823451, -0.0040246, -0.0630568, 0.563859, 1, 1, 1, 0.2, 1, 0, 0, 0, -0.780827, -0.0157519, -0.0847451, 0.618773, 1, 1, 1, 0.233333, 1, 0, 0, 0, -0.719225, -0.0232793, -0.0960634, 0.687711, 1, 1, 1, 0.266667, 1, 0, 0, 0, -0.617815, -0.0220324, -0.103345, 0.779191, 1, 1, 1, 0.3, 1, 0, 0, 0, -0.509077, -0.00473929, -0.0933961, 0.855626, 1, 1, 1, 0.333333, 1, 0, 0, 0, -0.380983, 0.0227614, -0.0592448, 0.922401, 1, 1, 1, 0.366667, 1, 0, 0, 0, -0.273162, 0.0449304, -0.0114297, 0.96085, 1, 1, 1, 0.4, 1, 0, 0, 0, -0.172875, 0.0448218, 0.0193955, 0.983732, 1, 1, 1, 0.433333, 1, 0, 0, 0, -0.136082, 0.024056, 0.00995586, 0.990355, 1, 1, 1, 0.466667, 1, 0, 0, 0, -0.109632, -0.00332997, -0.00507154, 0.993954, 1, 1, 1, 0.5, 1, 0, 0, 0, -0.185805, -0.0328694, -0.00815903, 0.982003, 1, 1, 1, 0.533333, 1, 0, 0, 0, -0.291631, -0.0563389, 0.00427878, 0.954861, 1, 1, 1, 0.566667, 1, 0, 0, 0, -0.415269, -0.0776127, 0.0275157, 0.905964, 1, 1, 1, 0.6, 1, 0, 0, 0, -0.548793, -0.10054, 0.044756, 0.828683, 1, 1, 1 )
tracks/20/type = "transform"
tracks/20/path = NodePath("Skeleton:LeftLeg")
tracks/20/interp = 1
tracks/20/loop_wrap = true
tracks/20/imported = false
tracks/20/enabled = true
tracks/20/keys = PoolRealArray( 0, 1, 0, 0, 0, 0.774397, 0.0357687, 0.0781781, 0.626831, 1, 1, 1, 0.0333333, 1, 0, 0, 0, 0.754679, 0.0339473, 0.0724631, 0.651196, 1, 1, 1, 0.0666667, 1, 0, 0, 0, 0.663064, 0.0433456, 0.0482515, 0.745747, 1, 1, 1, 0.1, 1, 0, 0, 0, 0.543839, 0.0533687, 0.019329, 0.837268, 1, 1, 1, 0.133333, 1, 0, 0, 0, 0.448415, 0.0512692, -0.00214648, 0.892351, 1, 1, 1, 0.166667, 1, 0, 0, 0, 0.44375, 0.0426562, -0.00218855, 0.895132, 1, 1, 1, 0.2, 1, 0, 0, 0, 0.533992, 0.0359576, 0.0183959, 0.844524, 1, 1, 1, 0.233333, 1, 0, 0, 0, 0.597693, 0.0288635, 0.0360195, 0.800395, 1, 1, 1, 0.266667, 1, 0, 0, 0, 0.612585, 0.0318169, 0.0458187, 0.788434, 1, 1, 1, 0.3, 1, 0, 0, 0, 0.606198, 0.0302276, 0.0408715, 0.793688, 1, 1, 1, 0.333333, 1, 0, 0, 0, 0.547437, 0.0197637, 0.027239, 0.83617, 1, 1, 1, 0.366667, 1, 0, 0, 0, 0.475546, -0.00794907, 0.0125685, 0.879565, 1, 1, 1, 0.4, 1, 0, 0, 0, 0.375502, -0.0280521, 0.0185286, 0.926212, 1, 1, 1, 0.433333, 1, 0, 0, 0, 0.30904, -0.035915, 0.032628, 0.94981, 1, 1, 1, 0.466667, 1, 0, 0, 0, 0.214078, -0.0491159, 0.020381, 0.975368, 1, 1, 1, 0.5, 1, 0, 0, 0, 0.38918, -0.00066976, 0.0416272, 0.920221, 1, 1, 1, 0.533333, 1, 0, 0, 0, 0.553986, 0.0425732, 0.0714454, 0.828362, 1, 1, 1, 0.566667, 1, 0, 0, 0, 0.671546, 0.0581546, 0.0912403, 0.73302, 1, 1, 1, 0.6, 1, 0, 0, 0, 0.741894, 0.0517753, 0.0908931, 0.662307, 1, 1, 1 )
tracks/21/type = "transform"
tracks/21/path = NodePath("Skeleton:LeftFoot")
tracks/21/interp = 1
tracks/21/loop_wrap = true
tracks/21/imported = false
tracks/21/enabled = true
tracks/21/keys = PoolRealArray( 0, 1, 0, 0, 0, 0.0277364, 0.00321212, -0.0213056, 0.999383, 1, 1, 1, 0.0333333, 1, 0, 0, 0, 0.0419782, 0.00828764, -0.0171159, 0.998938, 1, 1, 1, 0.0666667, 1, 0, 0, 0, 0.128633, 0.00845251, -0.00193996, 0.991654, 1, 1, 1, 0.1, 1, 0, 0, 0, 0.210047, 0.00742258, 0.00787326, 0.977631, 1, 1, 1, 0.133333, 1, 0, 0, 0, 0.258027, 0.00267406, 0.0242139, 0.965831, 1, 1, 1, 0.166667, 1, 0, 0, 0, 0.209549, -0.00340474, 0.0456242, 0.976727, 1, 1, 1, 0.2, 1, 0, 0, 0, 0.0131038, -0.0088209, 0.074492, 0.997097, 1, 1, 1, 0.233333, 1, 0, 0, 0, -0.171543, -0.00488139, 0.0648392, 0.983029, 1, 1, 1, 0.266667, 1, 0, 0, 0, -0.337248, -0.00347112, 0.0604243, 0.939468, 1, 1, 1, 0.3, 1, 0, 0, 0, -0.422902, -0.00161056, 0.0482749, 0.904887, 1, 1, 1, 0.333333, 1, 0, 0, 0, -0.455367, 0.000280764, 0.0241027, 0.889978, 1, 1, 1, 0.366667, 1, 0, 0, 0, -0.402378, 0.00369708, -0.0197383, 0.915253, 1, 1, 1, 0.4, 1, 0, 0, 0, -0.271347, 0.00901225, -0.062953, 0.960379, 1, 1, 1, 0.433333, 1, 0, 0, 0, 0.0280134, 0.0063848, -0.0417428, 0.998715, 1, 1, 1, 0.466667, 1, 0, 0, 0, 0.309281, 0.00264067, -0.00367421, 0.95096, 1, 1, 1, 0.5, 1, 0, 0, 0, 0.306184, 0.00546728, 0.00671513, 0.951933, 1, 1, 1, 0.533333, 1, 0, 0, 0, 0.249142, 0.0116083, 0.00686047, 0.968373, 1, 1, 1, 0.566667, 1, 0, 0, 0, 0.172251, 0.0153306, -0.00426455, 0.984925, 1, 1, 1, 0.6, 1, 0, 0, 0, 0.0938777, 0.0120068, -0.0167683, 0.99537, 1, 1, 1 )
tracks/22/type = "transform"
tracks/22/path = NodePath("Skeleton:LeftToeBase")
tracks/22/interp = 1
tracks/22/loop_wrap = true
tracks/22/imported = false
tracks/22/enabled = true
tracks/22/keys = PoolRealArray( 0, 1, 0, 0, 0, -0.432339, -0.0193344, -0.116131, 0.893993, 1, 1, 1, 0.0333333, 1, 0, 0, 0, -0.272437, -0.0283112, -0.105673, 0.955934, 1, 1, 1, 0.0666667, 1, 0, 0, 0, -0.112583, -0.0200181, -0.0652365, 0.991296, 1, 1, 1, 0.1, 1, 0, 0, 0, -0.00574644, -0.0146245, 0.0196924, 0.999683, 1, 1, 1, 0.133333, 1, 0, 0, 0, -0.0109811, -0.0184667, 0.0179281, 0.999608, 1, 1, 1, 0.166667, 1, 0, 0, 0, -0.0196797, -0.0239564, 0.0264203, 0.99917, 1, 1, 1, 0.2, 1, 0, 0, 0, -0.0800883, -0.0160605, 0.0125761, 0.996579, 1, 1, 1, 0.233333, 1, 0, 0, 0, -0.0486324, -0.00512292, -0.0112591, 0.99874, 1, 1, 1, 0.266667, 1, 0, 0, 0, -0.0316523, -0.00274096, -0.0234479, 0.99922, 1, 1, 1, 0.3, 1, 0, 0, 0, -0.0872713, -0.0177489, -0.0241869, 0.995733, 1, 1, 1, 0.333333, 1, 0, 0, 0, -0.152071, -0.0480577, -0.0199332, 0.986999, 1, 1, 1, 0.366667, 1, 0, 0, 0, -0.27814, -0.058733, -0.00299722, 0.958739, 1, 1, 1, 0.4, 1, 0, 0, 0, -0.441352, -0.0382629, 0.0150609, 0.896391, 1, 1, 1, 0.433333, 1, 0, 0, 0, -0.596545, -0.0659146, 0.00722261, 0.799836, 1, 1, 1, 0.466667, 1, 0, 0, 0, 0.570605, -0.122012, -0.129281, 0.801754, 1, 1, 1, 0.5, 1, 0, 0, 0, 0.219288, -0.0030186, 0.089151, 0.971574, 1, 1, 1, 0.533333, 1, 0, 0, 0, 0.0439009, -0.0115524, 0.0733522, 0.996273, 1, 1, 1, 0.566667, 1, 0, 0, 0, 0.0658767, -0.0212778, 0.131406, 0.988908, 1, 1, 1, 0.6, 1, 0, 0, 0, 0.116216, -0.0314481, 0.137158, 0.983205, 1, 1, 1 )
tracks/23/type = "transform"
tracks/23/path = NodePath("Skeleton:RightUpLeg")
tracks/23/interp = 1
tracks/23/loop_wrap = true
tracks/23/imported = false
tracks/23/enabled = true
tracks/23/keys = PoolRealArray( 0, 1, 0, 0, 0, -0.482503, 0.0153832, 0.0981427, 0.870243, 1, 1, 1, 0.0333333, 1, 0, 0, 0, -0.347336, 0.0176597, 0.105126, 0.931662, 1, 1, 1, 0.0666667, 1, 0, 0, 0, -0.231405, 0.0191044, 0.0957386, 0.967947, 1, 1, 1, 0.1, 1, 0, 0, 0, -0.158775, 0.0238795, 0.066566, 0.984779, 1, 1, 1, 0.133333, 1, 0, 0, 0, -0.0956938, 0.0228318, 0.084554, 0.99155, 1, 1, 1, 0.166667, 1, 0, 0, 0, -0.113177, 0.0120853, 0.0914753, 0.989281, 1, 1, 1, 0.2, 1, 0, 0, 0, -0.249489, -0.00716685, 0.0690112, 0.965889, 1, 1, 1, 0.233333, 1, 0, 0, 0, -0.41273, -0.0104809, 0.024484, 0.910464, 1, 1, 1, 0.266667, 1, 0, 0, 0, -0.581888, 0.00185682, -0.0217531, 0.812976, 1, 1, 1, 0.3, 1, 0, 0, 0, -0.73109, 0.0164766, -0.0597189, 0.679462, 1, 1, 1, 0.333333, 1, 0, 0, 0, -0.813398, 0.0177894, -0.0913664, 0.574213, 1, 1, 1, 0.366667, 1, 0, 0, 0, -0.840613, -0.00442483, -0.124572, 0.527098, 1, 1, 1, 0.4, 1, 0, 0, 0, 0.853031, 0.0355267, 0.149988, -0.498578, 1, 1, 1, 0.433333, 1, 0, 0, 0, 0.852696, 0.0522622, 0.16223, -0.493821, 1, 1, 1, 0.466667, 1, 0, 0, 0, -0.84387, -0.0473165, -0.155372, 0.511374, 1, 1, 1, 0.5, 1, 0, 0, 0, -0.828981, -0.0243295, -0.109935, 0.547826, 1, 1, 1, 0.533333, 1, 0, 0, 0, -0.794496, -0.0121766, -0.056691, 0.604495, 1, 1, 1, 0.566667, 1, 0, 0, 0, -0.71659, 0.000245507, 0.0107484, 0.697412, 1, 1, 1, 0.6, 1, 0, 0, 0, -0.610998, 0.00888578, 0.0653402, 0.788881, 1, 1, 1 )
tracks/24/type = "transform"
tracks/24/path = NodePath("Skeleton:RightLeg")
tracks/24/interp = 1
tracks/24/loop_wrap = true
tracks/24/imported = false
tracks/24/enabled = true
tracks/24/keys = PoolRealArray( 0, 1, 0, 0, 0, 0.594403, -0.169856, -0.0512809, 0.78435, 1, 1, 1, 0.0333333, 1, 0, 0, 0, 0.524661, -0.199937, -0.0693411, 0.82459, 1, 1, 1, 0.0666667, 1, 0, 0, 0, 0.456387, -0.205471, -0.070046, 0.862894, 1, 1, 1, 0.1, 1, 0, 0, 0, 0.4219, -0.172145, -0.053247, 0.888556, 1, 1, 1, 0.133333, 1, 0, 0, 0, 0.273771, -0.142434, -0.028389, 0.950766, 1, 1, 1, 0.166667, 1, 0, 0, 0, 0.243556, -0.0747725, 0.00458564, 0.966989, 1, 1, 1, 0.2, 1, 0, 0, 0, 0.466788, -0.0952895, -0.00754037, 0.879188, 1, 1, 1, 0.233333, 1, 0, 0, 0, 0.628467, -0.1292, -0.0535723, 0.765158, 1, 1, 1, 0.266667, 1, 0, 0, 0, 0.724529, -0.142568, -0.112017, 0.664969, 1, 1, 1, 0.3, 1, 0, 0, 0, 0.775565, -0.136751, -0.145927, 0.598752, 1, 1, 1, 0.333333, 1, 0, 0, 0, 0.710018, -0.129931, -0.066003, 0.688938, 1, 1, 1, 0.366667, 1, 0, 0, 0, 0.546099, -0.134591, 0.00979913, 0.82678, 1, 1, 1, 0.4, 1, 0, 0, 0, 0.422232, -0.162895, 0.0298834, 0.891231, 1, 1, 1, 0.433333, 1, 0, 0, 0, 0.359977, -0.187085, 0.0313048, 0.913475, 1, 1, 1, 0.466667, 1, 0, 0, 0, 0.386265, -0.183153, 0.035343, 0.90333, 1, 1, 1, 0.5, 1, 0, 0, 0, 0.502655, -0.165624, 0.031062, 0.847904, 1, 1, 1, 0.533333, 1, 0, 0, 0, 0.597646, -0.142018, 0.0203805, 0.788818, 1, 1, 1, 0.566667, 1, 0, 0, 0, 0.633621, -0.144302, -0.00936929, 0.760009, 1, 1, 1, 0.6, 1, 0, 0, 0, 0.633197, -0.15683, -0.0360515, 0.757077, 1, 1, 1 )
tracks/25/type = "transform"
tracks/25/path = NodePath("Skeleton:RightFoot")
tracks/25/interp = 1
tracks/25/loop_wrap = true
tracks/25/imported = false
tracks/25/enabled = true
tracks/25/keys = PoolRealArray( 0, 1, 0, 0, 0, -0.448927, -0.0043671, -0.0184696, 0.893367, 1, 1, 1, 0.0333333, 1, 0, 0, 0, -0.473977, -0.00989969, 0.00968329, 0.880428, 1, 1, 1, 0.0666667, 1, 0, 0, 0, -0.420212, -0.0235185, 0.0455993, 0.905974, 1, 1, 1, 0.1, 1, 0, 0, 0, -0.261212, -0.0470832, 0.118687, 0.956799, 1, 1, 1, 0.133333, 1, 0, 0, 0, 0.154392, -0.0317953, -0.0143946, 0.987393, 1, 1, 1, 0.166667, 1, 0, 0, 0, 0.375104, -0.03316, -0.0339853, 0.925766, 1, 1, 1, 0.2, 1, 0, 0, 0, 0.327119, -0.0286084, -0.0400351, 0.943701, 1, 1, 1, 0.233333, 1, 0, 0, 0, 0.241563, -0.0191633, -0.0654604, 0.967985, 1, 1, 1, 0.266667, 1, 0, 0, 0, 0.135217, -0.0160415, -0.0767126, 0.987712, 1, 1, 1, 0.3, 1, 0, 0, 0, -0.00917326, -0.029051, -0.0253388, 0.999215, 1, 1, 1, 0.333333, 1, 0, 0, 0, 0.0428405, -0.024202, -0.0506442, 0.997504, 1, 1, 1, 0.366667, 1, 0, 0, 0, 0.239191, -0.0263689, -0.0242818, 0.970311, 1, 1, 1, 0.4, 1, 0, 0, 0, 0.35046, -0.040149, 0.0396053, 0.934878, 1, 1, 1, 0.433333, 1, 0, 0, 0, 0.429323, -0.0507629, 0.0634684, 0.899487, 1, 1, 1, 0.466667, 1, 0, 0, 0, 0.416706, -0.0418088, 0.0266685, 0.907688, 1, 1, 1, 0.5, 1, 0, 0, 0, 0.189801, -0.0180672, -0.0691354, 0.979219, 1, 1, 1, 0.533333, 1, 0, 0, 0, -0.0214918, -0.0186555, -0.0717194, 0.997019, 1, 1, 1, 0.566667, 1, 0, 0, 0, -0.225395, -0.0128234, -0.0658642, 0.971954, 1, 1, 1, 0.6, 1, 0, 0, 0, -0.367404, -0.00476023, -0.0419732, 0.929102, 1, 1, 1 )
tracks/26/type = "transform"
tracks/26/path = NodePath("Skeleton:RightToeBase")
tracks/26/interp = 1
tracks/26/loop_wrap = true
tracks/26/imported = false
tracks/26/enabled = true
tracks/26/keys = PoolRealArray( 0, 1, 0, 0, 0, -0.130387, 0.0160687, 0.00530687, 0.991319, 1, 1, 1, 0.0333333, 1, 0, 0, 0, -0.188099, 0.0435242, 0.0279133, 0.980788, 1, 1, 1, 0.0666667, 1, 0, 0, 0, -0.309628, 0.0445882, 0.0346993, 0.949178, 1, 1, 1, 0.1, 1, 0, 0, 0, -0.490903, 0.00934093, 0.0127403, 0.871071, 1, 1, 1, 0.133333, 1, 0, 0, 0, -0.678719, 0.0223885, 0.0764094, 0.730069, 1, 1, 1, 0.166667, 1, 0, 0, 0, 0.475711, 0.104165, 0.115866, 0.865693, 1, 1, 1, 0.2, 1, 0, 0, 0, 0.276899, -0.0124408, -0.0625719, 0.958779, 1, 1, 1, 0.233333, 1, 0, 0, 0, 0.285407, -0.0768297, -0.254413, 0.920822, 1, 1, 1, 0.266667, 1, 0, 0, 0, -0.454152, -0.105675, 0.36491, 0.805866, 1, 1, 1, 0.3, 1, 0, 0, 0, -0.24324, -0.0230028, 0.219826, 0.944448, 1, 1, 1, 0.333333, 1, 0, 0, 0, -0.13953, -0.0064668, 0.119229, 0.982993, 1, 1, 1, 0.366667, 1, 0, 0, 0, -0.102199, 0.00497098, 0.0468783, 0.993646, 1, 1, 1, 0.4, 1, 0, 0, 0, -0.0513927, 0.0179279, -0.0193436, 0.99833, 1, 1, 1, 0.433333, 1, 0, 0, 0, -0.0638106, 0.0324068, -0.0429276, 0.996512, 1, 1, 1, 0.466667, 1, 0, 0, 0, -0.122137, 0.0466574, -0.102787, 0.986073, 1, 1, 1, 0.5, 1, 0, 0, 0, -0.13767, 0.0441338, -0.0197107, 0.989298, 1, 1, 1, 0.533333, 1, 0, 0, 0, -0.127108, -0.00479886, -0.0218514, 0.991637, 1, 1, 1, 0.566667, 1, 0, 0, 0, -0.0853284, -0.0054573, -0.00721109, 0.996312, 1, 1, 1, 0.6, 1, 0, 0, 0, -0.0903648, 0.0013129, -0.00225383, 0.995905, 1, 1, 1 )
tracks/27/type = "transform"
tracks/27/path = NodePath("Skeleton:RightHand")
tracks/27/interp = 1
tracks/27/loop_wrap = true
tracks/27/imported = false
tracks/27/enabled = true
tracks/27/keys = PoolRealArray( 0, 1, 0, 0, 0, -0.00103295, -0.123634, 0.198109, 0.972351, 1, 1, 1, 0.0333333, 1, 0, 0, 0, -0.00452728, -0.12627, 0.18373, 0.974822, 1, 1, 1, 0.0666667, 1, 0, 0, 0, -0.0070558, -0.133311, 0.180589, 0.974457, 1, 1, 1, 0.1, 1, 0, 0, 0, -0.00864639, -0.142679, 0.185353, 0.97222, 1, 1, 1, 0.133333, 1, 0, 0, 0, -0.00927634, -0.149784, 0.191517, 0.969949, 1, 1, 1, 0.166667, 1, 0, 0, 0, -0.00877061, -0.149805, 0.194003, 0.969456, 1, 1, 1, 0.2, 1, 0, 0, 0, -0.00691816, -0.142641, 0.193877, 0.970576, 1, 1, 1, 0.233333, 1, 0, 0, 0, -0.00431258, -0.133825, 0.195421, 0.971536, 1, 1, 1, 0.266667, 1, 0, 0, 0, -0.00253369, -0.130033, 0.199688, 0.97119, 1, 1, 1, 0.3, 1, 0, 0, 0, -0.00281525, -0.134387, 0.204115, 0.969675, 1, 1, 1, 0.333333, 1, 0, 0, 0, -0.00505099, -0.145969, 0.207932, 0.967177, 1, 1, 1, 0.366667, 1, 0, 0, 0, -0.00827991, -0.162696, 0.213761, 0.963207, 1, 1, 1, 0.4, 1, 0, 0, 0, -0.0115545, -0.182217, 0.222934, 0.957582, 1, 1, 1, 0.433333, 1, 0, 0, 0, -0.0140137, -0.199405, 0.23227, 0.951889, 1, 1, 1, 0.466667, 1, 0, 0, 0, -0.0148455, -0.206764, 0.236795, 0.949187, 1, 1, 1, 0.5, 1, 0, 0, 0, -0.0135746, -0.199678, 0.23407, 0.951397, 1, 1, 1, 0.533333, 1, 0, 0, 0, -0.0103779, -0.180261, 0.225385, 0.957392, 1, 1, 1, 0.566667, 1, 0, 0, 0, -0.00632054, -0.156201, 0.214355, 0.964165, 1, 1, 1, 0.6, 1, 0, 0, 0, -0.00286629, -0.135707, 0.204583, 0.969392, 1, 1, 1 )
tracks/28/type = "transform"
tracks/28/path = NodePath("Skeleton:RightHandThumb1")
tracks/28/interp = 1
tracks/28/loop_wrap = true
tracks/28/imported = false
tracks/28/enabled = true
tracks/28/keys = PoolRealArray( 0, 1, 0, 0, 0, 0.474075, 0.101748, -0.243752, 0.839931, 1, 1, 1, 0.0333333, 1, 0, 0, 0, 0.474075, 0.101748, -0.243752, 0.839931, 1, 1, 1, 0.0666667, 1, 0, 0, 0, 0.474075, 0.101748, -0.243752, 0.839931, 1, 1, 1, 0.1, 1, 0, 0, 0, 0.474075, 0.101748, -0.243752, 0.839931, 1, 1, 1, 0.133333, 1, 0, 0, 0, 0.474075, 0.101748, -0.243752, 0.839931, 1, 1, 1, 0.166667, 1, 0, 0, 0, 0.474075, 0.101748, -0.243752, 0.839931, 1, 1, 1, 0.2, 1, 0, 0, 0, 0.474075, 0.101748, -0.243752, 0.839931, 1, 1, 1, 0.233333, 1, 0, 0, 0, 0.474075, 0.101748, -0.243752, 0.839931, 1, 1, 1, 0.266667, 1, 0, 0, 0, 0.474075, 0.101748, -0.243752, 0.839931, 1, 1, 1, 0.3, 1, 0, 0, 0, 0.474075, 0.101748, -0.243752, 0.839931, 1, 1, 1, 0.333333, 1, 0, 0, 0, 0.474075, 0.101748, -0.243752, 0.839931, 1, 1, 1, 0.366667, 1, 0, 0, 0, 0.474075, 0.101748, -0.243752, 0.839931, 1, 1, 1, 0.4, 1, 0, 0, 0, 0.474075, 0.101748, -0.243752, 0.839931, 1, 1, 1, 0.433333, 1, 0, 0, 0, 0.474075, 0.101748, -0.243752, 0.839931, 1, 1, 1, 0.466667, 1, 0, 0, 0, 0.474075, 0.101748, -0.243752, 0.839931, 1, 1, 1, 0.5, 1, 0, 0, 0, 0.474075, 0.101748, -0.243752, 0.839931, 1, 1, 1, 0.533333, 1, 0, 0, 0, 0.474075, 0.101748, -0.243752, 0.839931, 1, 1, 1, 0.566667, 1, 0, 0, 0, 0.474075, 0.101748, -0.243752, 0.839931, 1, 1, 1, 0.6, 1, 0, 0, 0, 0.474075, 0.101748, -0.243752, 0.839931, 1, 1, 1 )
tracks/29/type = "transform"
tracks/29/path = NodePath("Skeleton:RightHandThumb2")
tracks/29/interp = 1
tracks/29/loop_wrap = true
tracks/29/imported = false
tracks/29/enabled = true
tracks/29/keys = PoolRealArray( 0, 1, 0, 0, 0, 0.078182, -0.180463, -0.0450385, 0.979435, 1, 1, 1, 0.0333333, 1, 0, 0, 0, 0.078182, -0.180463, -0.0450385, 0.979435, 1, 1, 1, 0.0666667, 1, 0, 0, 0, 0.078182, -0.180463, -0.0450385, 0.979435, 1, 1, 1, 0.1, 1, 0, 0, 0, 0.078182, -0.180463, -0.0450385, 0.979435, 1, 1, 1, 0.133333, 1, 0, 0, 0, 0.078182, -0.180463, -0.0450385, 0.979435, 1, 1, 1, 0.166667, 1, 0, 0, 0, 0.078182, -0.180463, -0.0450385, 0.979435, 1, 1, 1, 0.2, 1, 0, 0, 0, 0.078182, -0.180463, -0.0450385, 0.979435, 1, 1, 1, 0.233333, 1, 0, 0, 0, 0.078182, -0.180463, -0.0450385, 0.979435, 1, 1, 1, 0.266667, 1, 0, 0, 0, 0.078182, -0.180463, -0.0450385, 0.979435, 1, 1, 1, 0.3, 1, 0, 0, 0, 0.078182, -0.180463, -0.0450385, 0.979435, 1, 1, 1, 0.333333, 1, 0, 0, 0, 0.078182, -0.180463, -0.0450385, 0.979435, 1, 1, 1, 0.366667, 1, 0, 0, 0, 0.078182, -0.180463, -0.0450385, 0.979435, 1, 1, 1, 0.4, 1, 0, 0, 0, 0.078182, -0.180463, -0.0450385, 0.979435, 1, 1, 1, 0.433333, 1, 0, 0, 0, 0.078182, -0.180463, -0.0450385, 0.979435, 1, 1, 1, 0.466667, 1, 0, 0, 0, 0.078182, -0.180463, -0.0450385, 0.979435, 1, 1, 1, 0.5, 1, 0, 0, 0, 0.078182, -0.180463, -0.0450385, 0.979435, 1, 1, 1, 0.533333, 1, 0, 0, 0, 0.078182, -0.180463, -0.0450385, 0.979435, 1, 1, 1, 0.566667, 1, 0, 0, 0, 0.078182, -0.180463, -0.0450385, 0.979435, 1, 1, 1, 0.6, 1, 0, 0, 0, 0.078182, -0.180463, -0.0450385, 0.979435, 1, 1, 1 )
tracks/30/type = "transform"
tracks/30/path = NodePath("Skeleton:RightHandThumb3")
tracks/30/interp = 1
tracks/30/loop_wrap = true
tracks/30/imported = false
tracks/30/enabled = true
tracks/30/keys = PoolRealArray( 0, 1, 0, 0, 0, -0.0020789, 0.00482041, 0.00122078, 0.999986, 1, 1, 1, 0.0333333, 1, 0, 0, 0, -0.0020789, 0.00482041, 0.00122078, 0.999986, 1, 1, 1, 0.0666667, 1, 0, 0, 0, -0.0020789, 0.00482041, 0.00122078, 0.999986, 1, 1, 1, 0.1, 1, 0, 0, 0, -0.0020789, 0.00482041, 0.00122078, 0.999986, 1, 1, 1, 0.133333, 1, 0, 0, 0, -0.0020789, 0.00482041, 0.00122078, 0.999986, 1, 1, 1, 0.166667, 1, 0, 0, 0, -0.0020789, 0.00482041, 0.00122078, 0.999986, 1, 1, 1, 0.2, 1, 0, 0, 0, -0.0020789, 0.00482041, 0.00122078, 0.999986, 1, 1, 1, 0.233333, 1, 0, 0, 0, -0.0020789, 0.00482041, 0.00122078, 0.999986, 1, 1, 1, 0.266667, 1, 0, 0, 0, -0.0020789, 0.00482041, 0.00122078, 0.999986, 1, 1, 1, 0.3, 1, 0, 0, 0, -0.0020789, 0.00482041, 0.00122078, 0.999986, 1, 1, 1, 0.333333, 1, 0, 0, 0, -0.0020789, 0.00482041, 0.00122078, 0.999986, 1, 1, 1, 0.366667, 1, 0, 0, 0, -0.0020789, 0.00482041, 0.00122078, 0.999986, 1, 1, 1, 0.4, 1, 0, 0, 0, -0.0020789, 0.00482041, 0.00122078, 0.999986, 1, 1, 1, 0.433333, 1, 0, 0, 0, -0.0020789, 0.00482041, 0.00122078, 0.999986, 1, 1, 1, 0.466667, 1, 0, 0, 0, -0.0020789, 0.00482041, 0.00122078, 0.999986, 1, 1, 1, 0.5, 1, 0, 0, 0, -0.0020789, 0.00482041, 0.00122078, 0.999986, 1, 1, 1, 0.533333, 1, 0, 0, 0, -0.0020789, 0.00482041, 0.00122078, 0.999986, 1, 1, 1, 0.566667, 1, 0, 0, 0, -0.0020789, 0.00482041, 0.00122078, 0.999986, 1, 1, 1, 0.6, 1, 0, 0, 0, -0.0020789, 0.00482041, 0.00122078, 0.999986, 1, 1, 1 )
tracks/31/type = "transform"
tracks/31/path = NodePath("Skeleton:RightHandIndex1")
tracks/31/interp = 1
tracks/31/loop_wrap = true
tracks/31/imported = false
tracks/31/enabled = true
tracks/31/keys = PoolRealArray( 0, 1, 0, 0, 0, -0.00236597, 0.0759505, -0.0756841, 0.994232, 1, 1, 1, 0.0333333, 1, 0, 0, 0, -0.00236597, 0.0759505, -0.0756841, 0.994232, 1, 1, 1, 0.0666667, 1, 0, 0, 0, -0.00236597, 0.0759505, -0.0756841, 0.994232, 1, 1, 1, 0.1, 1, 0, 0, 0, -0.00236597, 0.0759505, -0.0756841, 0.994232, 1, 1, 1, 0.133333, 1, 0, 0, 0, -0.00236597, 0.0759505, -0.0756841, 0.994232, 1, 1, 1, 0.166667, 1, 0, 0, 0, -0.00236597, 0.0759505, -0.0756841, 0.994232, 1, 1, 1, 0.2, 1, 0, 0, 0, -0.00236597, 0.0759505, -0.0756841, 0.994232, 1, 1, 1, 0.233333, 1, 0, 0, 0, -0.00236597, 0.0759505, -0.0756841, 0.994232, 1, 1, 1, 0.266667, 1, 0, 0, 0, -0.00236597, 0.0759505, -0.0756841, 0.994232, 1, 1, 1, 0.3, 1, 0, 0, 0, -0.00236597, 0.0759505, -0.0756841, 0.994232, 1, 1, 1, 0.333333, 1, 0, 0, 0, -0.00236597, 0.0759505, -0.0756841, 0.994232, 1, 1, 1, 0.366667, 1, 0, 0, 0, -0.00236597, 0.0759505, -0.0756841, 0.994232, 1, 1, 1, 0.4, 1, 0, 0, 0, -0.00236597, 0.0759505, -0.0756841, 0.994232, 1, 1, 1, 0.433333, 1, 0, 0, 0, -0.00236597, 0.0759505, -0.0756841, 0.994232, 1, 1, 1, 0.466667, 1, 0, 0, 0, -0.00236597, 0.0759505, -0.0756841, 0.994232, 1, 1, 1, 0.5, 1, 0, 0, 0, -0.00236597, 0.0759505, -0.0756841, 0.994232, 1, 1, 1, 0.533333, 1, 0, 0, 0, -0.00236597, 0.0759505, -0.0756841, 0.994232, 1, 1, 1, 0.566667, 1, 0, 0, 0, -0.00236597, 0.0759505, -0.0756841, 0.994232, 1, 1, 1, 0.6, 1, 0, 0, 0, -0.00236597, 0.0759505, -0.0756841, 0.994232, 1, 1, 1 )
tracks/32/type = "transform"
tracks/32/path = NodePath("Skeleton:RightHandIndex2")
tracks/32/interp = 1
tracks/32/loop_wrap = true
tracks/32/imported = false
tracks/32/enabled = true
tracks/32/keys = PoolRealArray( 0, 1, 0, 0, 0, -2.86029e-07, 2.36202e-05, -1.25919e-07, 1, 1, 1, 1, 0.0333333, 1, 0, 0, 0, -2.86029e-07, 2.36202e-05, -1.25919e-07, 1, 1, 1, 1, 0.0666667, 1, 0, 0, 0, -2.86029e-07, 2.36202e-05, -1.25919e-07, 1, 1, 1, 1, 0.1, 1, 0, 0, 0, -2.86029e-07, 2.36202e-05, -1.25919e-07, 1, 1, 1, 1, 0.133333, 1, 0, 0, 0, -2.86029e-07, 2.36202e-05, -1.25919e-07, 1, 1, 1, 1, 0.166667, 1, 0, 0, 0, -2.86029e-07, 2.36202e-05, -1.25919e-07, 1, 1, 1, 1, 0.2, 1, 0, 0, 0, -2.86029e-07, 2.36202e-05, -1.25919e-07, 1, 1, 1, 1, 0.233333, 1, 0, 0, 0, -2.86029e-07, 2.36202e-05, -1.25919e-07, 1, 1, 1, 1, 0.266667, 1, 0, 0, 0, -2.86029e-07, 2.36202e-05, -1.25919e-07, 1, 1, 1, 1, 0.3, 1, 0, 0, 0, -2.86029e-07, 2.36202e-05, -1.25919e-07, 1, 1, 1, 1, 0.333333, 1, 0, 0, 0, -2.86029e-07, 2.36202e-05, -1.25919e-07, 1, 1, 1, 1, 0.366667, 1, 0, 0, 0, -2.86029e-07, 2.36202e-05, -1.25919e-07, 1, 1, 1, 1, 0.4, 1, 0, 0, 0, -2.86029e-07, 2.36202e-05, -1.25919e-07, 1, 1, 1, 1, 0.433333, 1, 0, 0, 0, -2.86029e-07, 2.36202e-05, -1.25919e-07, 1, 1, 1, 1, 0.466667, 1, 0, 0, 0, -2.86029e-07, 2.36202e-05, -1.25919e-07, 1, 1, 1, 1, 0.5, 1, 0, 0, 0, -2.86029e-07, 2.36202e-05, -1.25919e-07, 1, 1, 1, 1, 0.533333, 1, 0, 0, 0, -2.86029e-07, 2.36202e-05, -1.25919e-07, 1, 1, 1, 1, 0.566667, 1, 0, 0, 0, -2.86029e-07, 2.36202e-05, -1.25919e-07, 1, 1, 1, 1, 0.6, 1, 0, 0, 0, -2.86029e-07, 2.36202e-05, -1.25919e-07, 1, 1, 1, 1 )
tracks/33/type = "transform"
tracks/33/path = NodePath("Skeleton:RightHandIndex3")
tracks/33/interp = 1
tracks/33/loop_wrap = true
tracks/33/imported = false
tracks/33/enabled = true
tracks/33/keys = PoolRealArray( 0, 1, 0, 0, 0, -0.00512052, -0.0160486, -0.127386, 0.99171, 1, 1, 1, 0.0333333, 1, 0, 0, 0, -0.00512052, -0.0160486, -0.127386, 0.99171, 1, 1, 1, 0.0666667, 1, 0, 0, 0, -0.00512052, -0.0160486, -0.127386, 0.99171, 1, 1, 1, 0.1, 1, 0, 0, 0, -0.00512052, -0.0160486, -0.127386, 0.99171, 1, 1, 1, 0.133333, 1, 0, 0, 0, -0.00512052, -0.0160486, -0.127386, 0.99171, 1, 1, 1, 0.166667, 1, 0, 0, 0, -0.00512052, -0.0160486, -0.127386, 0.99171, 1, 1, 1, 0.2, 1, 0, 0, 0, -0.00512052, -0.0160486, -0.127386, 0.99171, 1, 1, 1, 0.233333, 1, 0, 0, 0, -0.00512052, -0.0160486, -0.127386, 0.99171, 1, 1, 1, 0.266667, 1, 0, 0, 0, -0.00512052, -0.0160486, -0.127386, 0.99171, 1, 1, 1, 0.3, 1, 0, 0, 0, -0.00512052, -0.0160486, -0.127386, 0.99171, 1, 1, 1, 0.333333, 1, 0, 0, 0, -0.00512052, -0.0160486, -0.127386, 0.99171, 1, 1, 1, 0.366667, 1, 0, 0, 0, -0.00512052, -0.0160486, -0.127386, 0.99171, 1, 1, 1, 0.4, 1, 0, 0, 0, -0.00512052, -0.0160486, -0.127386, 0.99171, 1, 1, 1, 0.433333, 1, 0, 0, 0, -0.00512052, -0.0160486, -0.127386, 0.99171, 1, 1, 1, 0.466667, 1, 0, 0, 0, -0.00512052, -0.0160486, -0.127386, 0.99171, 1, 1, 1, 0.5, 1, 0, 0, 0, -0.00512052, -0.0160486, -0.127386, 0.99171, 1, 1, 1, 0.533333, 1, 0, 0, 0, -0.00512052, -0.0160486, -0.127386, 0.99171, 1, 1, 1, 0.566667, 1, 0, 0, 0, -0.00512052, -0.0160486, -0.127386, 0.99171, 1, 1, 1, 0.6, 1, 0, 0, 0, -0.00512052, -0.0160486, -0.127386, 0.99171, 1, 1, 1 )
