[gd_resource type="SpatialMaterial" load_steps=2 format=2]

[ext_resource path="res://Assets/Textures/LightFloor.png" type="Texture" id=1]

[resource]
albedo_texture = ExtResource( 1 )
uv1_scale = Vector3( 6, 2, 1 )
